{
  "_pages": {
    "current_page": 6,
    "per_page": 200,
    "total_items": 1013,
    "total_pages": 6
  },
  "_embedded": {
    "errors": [],
    "media": [
      {
        "camera_model": "HERO9 Black",
        "captured_at": "2021-08-03T18:30:08Z",
        "content_title": "",
        "content_type": null,
        "created_at": "2021-10-27T00:32:01Z",
        "gopro_user_id": "a2bb053a-5a3e-4c3c-acf7-6ead6164bd8a",
        "gopro_media": true,
        "filename": "GH040028.MP4",
        "file_size": 670807904,
        "height": 2160,
        "fov": null,
        "id": "B25zNRRXaWeoN",
        "item_count": 1,
        "moments_count": 0,
        "on_public_profile": false,
        "orientation": 1,
        "play_as": "video",
        "ready_to_edit": true,
        "ready_to_view": "ready",
        "resolution": "2160p",
        "source_duration": "89056",
        "token": "eyJhbGciOiJIUzI1NiJ9.eyJtZWRpdW1faWQiOiIxOTkxODk1MDEyMzc1MjY2NTI1Iiwib3duZXIiOiJhMmJiMDUzYS01YTNlLTRjM2MtYWNmNy02ZWFkNjE2NGJkOGEiLCJpc19wdWJsaWMiOmZhbHNlLCJvIjoxLCJ0cmFucyI6IkdQQVQiLCJyZWdpb24iOiJ1cy13ZXN0LTIiLCJ0aHVtYm5haWxfdXBkYXRlZF9kYXRlIjoiMjAyMS0xMC0yN1QwMDozMjo0NVoifQ.PirHlkrbtXaJBJUTUAlcBaSZymcKjyNtekXrwySvAYs",
        "type": "Video",
        "width": 3840
      },
      {
        "camera_model": "HERO9 Black",
        "captured_at": "2021-08-03T18:30:08Z",
        "content_title": "",
        "content_type": null,
        "created_at": "2021-10-27T00:16:22Z",
        "gopro_user_id": "a2bb053a-5a3e-4c3c-acf7-6ead6164bd8a",
        "gopro_media": true,
        "filename": "GH010028.MP4",
        "file_size": 4004280624,
        "height": 2160,
        "fov": null,
        "id": "eQXwrKN8J4BWz",
        "item_count": 1,
        "moments_count": 0,
        "on_public_profile": false,
        "orientation": 1,
        "play_as": "video",
        "ready_to_edit": true,
        "ready_to_view": "ready",
        "resolution": "2160p",
        "source_duration": "531541",
        "token": "eyJhbGciOiJIUzI1NiJ9.eyJtZWRpdW1faWQiOiIxOTkxODg3MTM4MzE2MDkyNTU4Iiwib3duZXIiOiJhMmJiMDUzYS01YTNlLTRjM2MtYWNmNy02ZWFkNjE2NGJkOGEiLCJpc19wdWJsaWMiOmZhbHNlLCJvIjoxLCJ0cmFucyI6IkdQQVQiLCJyZWdpb24iOiJ1cy13ZXN0LTIiLCJ0aHVtYm5haWxfdXBkYXRlZF9kYXRlIjoiMjAyMS0xMC0yN1QwMDoyNDowMloifQ.9tdhMD8095mdtDy5hFbjKupYvKpNN1f5penwTC4bkHQ",
        "type": "Video",
        "width": 3840
      },
      {
        "camera_model": "HERO9 Black",
        "captured_at": "2021-08-03T18:30:08Z",
        "content_title": "",
        "content_type": null,
        "created_at": "2021-10-27T00:28:05Z",
        "gopro_user_id": "a2bb053a-5a3e-4c3c-acf7-6ead6164bd8a",
        "gopro_media": true,
        "filename": "GH030028.MP4",
        "file_size": 4004003630,
        "height": 2160,
        "fov": null,
        "id": "vPwJOw728oMzz",
        "item_count": 1,
        "moments_count": 0,
        "on_public_profile": false,
        "orientation": 1,
        "play_as": "video",
        "ready_to_edit": true,
        "ready_to_view": "ready",
        "resolution": "2160p",
        "source_duration": "531531",
        "token": "eyJhbGciOiJIUzI1NiJ9.eyJtZWRpdW1faWQiOiIxOTkxODkzMDM3NTcxMTE0NTE2Iiwib3duZXIiOiJhMmJiMDUzYS01YTNlLTRjM2MtYWNmNy02ZWFkNjE2NGJkOGEiLCJpc19wdWJsaWMiOmZhbHNlLCJvIjoxLCJ0cmFucyI6IkdQQVQiLCJyZWdpb24iOiJ1cy13ZXN0LTIiLCJ0aHVtYm5haWxfdXBkYXRlZF9kYXRlIjoiMjAyMS0xMC0yN1QwMDozMjoxN1oifQ.-C8zIjF1GJY6i87k-h9DdxT-u9QSXBAk8v4Yqco1X5g",
        "type": "Video",
        "width": 3840
      },
      {
        "camera_model": "HERO9 Black",
        "captured_at": "2021-08-03T18:30:08Z",
        "content_title": "",
        "content_type": null,
        "created_at": "2021-10-27T00:24:14Z",
        "gopro_user_id": "a2bb053a-5a3e-4c3c-acf7-6ead6164bd8a",
        "gopro_media": true,
        "filename": "GH020028.MP4",
        "file_size": 4003808842,
        "height": 2160,
        "fov": null,
        "id": "KR5yNDOV3Zo28",
        "item_count": 1,
        "moments_count": 0,
        "on_public_profile": false,
        "orientation": 1,
        "play_as": "video",
        "ready_to_edit": true,
        "ready_to_view": "ready",
        "resolution": "2160p",
        "source_duration": "531541",
        "token": "eyJhbGciOiJIUzI1NiJ9.eyJtZWRpdW1faWQiOiIxOTkxODkxMTAxODA3NTQzNDAzIiwib3duZXIiOiJhMmJiMDUzYS01YTNlLTRjM2MtYWNmNy02ZWFkNjE2NGJkOGEiLCJpc19wdWJsaWMiOmZhbHNlLCJvIjoxLCJ0cmFucyI6IkdQQVQiLCJyZWdpb24iOiJ1cy13ZXN0LTIiLCJ0aHVtYm5haWxfdXBkYXRlZF9kYXRlIjoiMjAyMS0xMC0yN1QwMDoyNzoyN1oifQ.bXCjAGj6rfPblbVlgWsF8fLnb2J8qTki43EscZyyFSg",
        "type": "Video",
        "width": 3840
      },
      {
        "camera_model": "HERO9 Black",
        "captured_at": "2021-08-03T18:08:30Z",
        "content_title": "",
        "content_type": null,
        "created_at": "2021-10-27T00:14:43Z",
        "gopro_user_id": "a2bb053a-5a3e-4c3c-acf7-6ead6164bd8a",
        "gopro_media": true,
        "filename": "GH010027.MP4",
        "file_size": 3290337228,
        "height": 2160,
        "fov": null,
        "id": "G15GNXkzwepDE",
        "item_count": 1,
        "moments_count": 0,
        "on_public_profile": false,
        "orientation": 1,
        "play_as": "video",
        "ready_to_edit": true,
        "ready_to_view": "ready",
        "resolution": "2160p",
        "source_duration": "436703",
        "token": "eyJhbGciOiJIUzI1NiJ9.eyJtZWRpdW1faWQiOiIxOTkxODg2MzExMzQxOTUwNTM1Iiwib3duZXIiOiJhMmJiMDUzYS01YTNlLTRjM2MtYWNmNy02ZWFkNjE2NGJkOGEiLCJpc19wdWJsaWMiOmZhbHNlLCJvIjoxLCJ0cmFucyI6IkdQQVQiLCJyZWdpb24iOiJ1cy13ZXN0LTIiLCJ0aHVtYm5haWxfdXBkYXRlZF9kYXRlIjoiMjAyMS0xMC0yN1QwMDoxNzoyMVoifQ.PE-gDB9bsQyNyv24Aso691nU851RRnNClyDLWEikPC4",
        "type": "Video",
        "width": 3840
      },
      {
        "camera_model": "HERO9 Black",
        "captured_at": "2021-08-03T17:38:53Z",
        "content_title": "",
        "content_type": null,
        "created_at": "2021-10-27T00:12:44Z",
        "gopro_user_id": "a2bb053a-5a3e-4c3c-acf7-6ead6164bd8a",
        "gopro_media": true,
        "filename": "GH010025.MP4",
        "file_size": 4004122936,
        "height": 2160,
        "fov": null,
        "id": "m0JmX52edga3b",
        "item_count": 1,
        "moments_count": 0,
        "on_public_profile": false,
        "orientation": 1,
        "play_as": "video",
        "ready_to_edit": true,
        "ready_to_view": "ready",
        "resolution": "2160p",
        "source_duration": "531541",
        "token": "eyJhbGciOiJIUzI1NiJ9.eyJtZWRpdW1faWQiOiIxOTkxODg1MzExMDE3MjIzMzk5Iiwib3duZXIiOiJhMmJiMDUzYS01YTNlLTRjM2MtYWNmNy02ZWFkNjE2NGJkOGEiLCJpc19wdWJsaWMiOmZhbHNlLCJvIjoxLCJ0cmFucyI6IkdQQVQiLCJyZWdpb24iOiJ1cy13ZXN0LTIiLCJ0aHVtYm5haWxfdXBkYXRlZF9kYXRlIjoiMjAyMS0xMC0yN1QwMDoxNjozNVoifQ.3BktTZUSmzYVzAVXe13FgbOkhPAY7k_XsIGSsbBu9fI",
        "type": "Video",
        "width": 3840
      },
      {
        "camera_model": "HERO9 Black",
        "captured_at": "2021-08-03T17:38:53Z",
        "content_title": "",
        "content_type": null,
        "created_at": "2021-10-27T00:22:16Z",
        "gopro_user_id": "a2bb053a-5a3e-4c3c-acf7-6ead6164bd8a",
        "gopro_media": true,
        "filename": "GH020025.MP4",
        "file_size": 4004062594,
        "height": 2160,
        "fov": null,
        "id": "zPrNyWWlW4kZd",
        "item_count": 1,
        "moments_count": 0,
        "on_public_profile": false,
        "orientation": 1,
        "play_as": "video",
        "ready_to_edit": true,
        "ready_to_view": "ready",
        "resolution": "2160p",
        "source_duration": "531541",
        "token": "eyJhbGciOiJIUzI1NiJ9.eyJtZWRpdW1faWQiOiIxOTkxODkwMTExMTgwMDQ3OTk1Iiwib3duZXIiOiJhMmJiMDUzYS01YTNlLTRjM2MtYWNmNy02ZWFkNjE2NGJkOGEiLCJpc19wdWJsaWMiOmZhbHNlLCJvIjoxLCJ0cmFucyI6IkdQQVQiLCJyZWdpb24iOiJ1cy13ZXN0LTIiLCJ0aHVtYm5haWxfdXBkYXRlZF9kYXRlIjoiMjAyMS0xMC0yN1QwMDoyNDo1N1oifQ.KuErvvf3VSYDswLfvk51UlbyMhyG8SVoKomRzd1dI1g",
        "type": "Video",
        "width": 3840
      },
      {
        "camera_model": "HERO9 Black",
        "captured_at": "2021-08-03T17:04:41Z",
        "content_title": "",
        "content_type": null,
        "created_at": "2021-10-27T00:11:10Z",
        "gopro_user_id": "a2bb053a-5a3e-4c3c-acf7-6ead6164bd8a",
        "gopro_media": true,
        "filename": "GH010024.MP4",
        "file_size": 3140838936,
        "height": 2160,
        "fov": null,
        "id": "rDlmkdge3vMDG",
        "item_count": 1,
        "moments_count": 0,
        "on_public_profile": false,
        "orientation": 1,
        "play_as": "video",
        "ready_to_edit": true,
        "ready_to_view": "ready",
        "resolution": "2160p",
        "source_duration": "416917",
        "token": "eyJhbGciOiJIUzI1NiJ9.eyJtZWRpdW1faWQiOiIxOTkxODg0NTE3MjYxOTY5MTQ2Iiwib3duZXIiOiJhMmJiMDUzYS01YTNlLTRjM2MtYWNmNy02ZWFkNjE2NGJkOGEiLCJpc19wdWJsaWMiOmZhbHNlLCJvIjoxLCJ0cmFucyI6IkdQQVQiLCJyZWdpb24iOiJ1cy13ZXN0LTIiLCJ0aHVtYm5haWxfdXBkYXRlZF9kYXRlIjoiMjAyMS0xMC0yN1QwMDoxNDowNloifQ.m-78R-7SiChG5ZBTm7WFgO4g31ljN4MkUqiAC-tSi1s",
        "type": "Video",
        "width": 3840
      },
      {
        "camera_model": "HERO9 Black",
        "captured_at": "2021-08-03T16:16:56Z",
        "content_title": "",
        "content_type": null,
        "created_at": "2021-10-27T00:09:11Z",
        "gopro_user_id": "a2bb053a-5a3e-4c3c-acf7-6ead6164bd8a",
        "gopro_media": true,
        "filename": "GH010023.MP4",
        "file_size": 4004164197,
        "height": 2160,
        "fov": null,
        "id": "kVvwygnnGno6g",
        "item_count": 1,
        "moments_count": 0,
        "on_public_profile": false,
        "orientation": 1,
        "play_as": "video",
        "ready_to_edit": true,
        "ready_to_view": "ready",
        "resolution": "2160p",
        "source_duration": "531541",
        "token": "eyJhbGciOiJIUzI1NiJ9.eyJtZWRpdW1faWQiOiIxOTkxODgzNTIwMTE2NTI0NzE1Iiwib3duZXIiOiJhMmJiMDUzYS01YTNlLTRjM2MtYWNmNy02ZWFkNjE2NGJkOGEiLCJpc19wdWJsaWMiOmZhbHNlLCJvIjoxLCJ0cmFucyI6IkdQQVQiLCJyZWdpb24iOiJ1cy13ZXN0LTIiLCJ0aHVtYm5haWxfdXBkYXRlZF9kYXRlIjoiMjAyMS0xMC0yN1QwMDoxNDowOFoifQ.xVZigdl0hFQWM71R7gI-XKVKMuORmpK-uZwQHCmdykQ",
        "type": "Video",
        "width": 3840
      },
      {
        "camera_model": "HERO9 Black",
        "captured_at": "2021-08-03T16:16:56Z",
        "content_title": "",
        "content_type": null,
        "created_at": "2021-10-27T00:20:19Z",
        "gopro_user_id": "a2bb053a-5a3e-4c3c-acf7-6ead6164bd8a",
        "gopro_media": true,
        "filename": "GH020023.MP4",
        "file_size": 4004019983,
        "height": 2160,
        "fov": null,
        "id": "zPrNy79bJndl1",
        "item_count": 1,
        "moments_count": 0,
        "on_public_profile": false,
        "orientation": 1,
        "play_as": "video",
        "ready_to_edit": true,
        "ready_to_view": "ready",
        "resolution": "2160p",
        "source_duration": "531541",
        "token": "eyJhbGciOiJIUzI1NiJ9.eyJtZWRpdW1faWQiOiIxOTkxODg5MTIzODQwODg2NzUxIiwib3duZXIiOiJhMmJiMDUzYS01YTNlLTRjM2MtYWNmNy02ZWFkNjE2NGJkOGEiLCJpc19wdWJsaWMiOmZhbHNlLCJvIjoxLCJ0cmFucyI6IkdQQVQiLCJyZWdpb24iOiJ1cy13ZXN0LTIiLCJ0aHVtYm5haWxfdXBkYXRlZF9kYXRlIjoiMjAyMS0xMC0yN1QwMDoyMzowMFoifQ.xSgZoWvc-ZTOFIEB0jc4AA1PVFMBguCEy0LasaN2JgQ",
        "type": "Video",
        "width": 3840
      },
      {
        "camera_model": "HERO9 Black",
        "captured_at": "2021-07-30T00:04:01Z",
        "content_title": "",
        "content_type": null,
        "created_at": "2021-10-27T00:03:37Z",
        "gopro_user_id": "a2bb053a-5a3e-4c3c-acf7-6ead6164bd8a",
        "gopro_media": true,
        "filename": "GH010020.MP4",
        "file_size": 90096579,
        "height": 1080,
        "fov": null,
        "id": "Lv59PqRE7LM47",
        "item_count": 1,
        "moments_count": 0,
        "on_public_profile": false,
        "orientation": 1,
        "play_as": "video",
        "ready_to_edit": true,
        "ready_to_view": "ready",
        "resolution": "1080p",
        "source_duration": "15849",
        "token": "eyJhbGciOiJIUzI1NiJ9.eyJtZWRpdW1faWQiOiIxOTkxODgwNzIwNzAzODE3MzUzIiwib3duZXIiOiJhMmJiMDUzYS01YTNlLTRjM2MtYWNmNy02ZWFkNjE2NGJkOGEiLCJpc19wdWJsaWMiOmZhbHNlLCJvIjoxLCJ0cmFucyI6IkdQQVQiLCJyZWdpb24iOiJ1cy13ZXN0LTIiLCJ0aHVtYm5haWxfdXBkYXRlZF9kYXRlIjoiMjAyMS0xMC0yN1QwMDowMzo0NVoifQ.T_5rQvAVt8v0eQo_vasb8BjezlF6SqpKAgDgVpJ8ISI",
        "type": "Video",
        "width": 1920
      },
      {
        "camera_model": "HERO9 Black",
        "captured_at": "2021-07-29T23:53:39Z",
        "content_title": "",
        "content_type": null,
        "created_at": "2021-10-27T00:03:10Z",
        "gopro_user_id": "a2bb053a-5a3e-4c3c-acf7-6ead6164bd8a",
        "gopro_media": true,
        "filename": "GH010015.MP4",
        "file_size": 108942992,
        "height": 1080,
        "fov": null,
        "id": "V25BrzQe77l0n",
        "item_count": 1,
        "moments_count": 0,
        "on_public_profile": false,
        "orientation": 1,
        "play_as": "video",
        "ready_to_edit": true,
        "ready_to_view": "ready",
        "resolution": "1080p",
        "source_duration": "19169",
        "token": "eyJhbGciOiJIUzI1NiJ9.eyJtZWRpdW1faWQiOiIxOTkxODgwNDk0MjcwMTIxODM5Iiwib3duZXIiOiJhMmJiMDUzYS01YTNlLTRjM2MtYWNmNy02ZWFkNjE2NGJkOGEiLCJpc19wdWJsaWMiOmZhbHNlLCJvIjoxLCJ0cmFucyI6IkdQQVQiLCJyZWdpb24iOiJ1cy13ZXN0LTIiLCJ0aHVtYm5haWxfdXBkYXRlZF9kYXRlIjoiMjAyMS0xMC0yN1QwMDowMzoxN1oifQ.Tdn-g2HnDEgZIzdEXMrqRipjjJADuiyzrgDd0vjPy6c",
        "type": "Video",
        "width": 1920
      },
      {
        "camera_model": "HERO9 Black",
        "captured_at": "2021-07-28T17:44:35Z",
        "content_title": "",
        "content_type": null,
        "created_at": "2021-10-27T00:02:04Z",
        "gopro_user_id": "a2bb053a-5a3e-4c3c-acf7-6ead6164bd8a",
        "gopro_media": true,
        "filename": "GH010014.MP4",
        "file_size": 2655281572,
        "height": 1080,
        "fov": null,
        "id": "4yOVl5L09rkKv",
        "item_count": 1,
        "moments_count": 0,
        "on_public_profile": false,
        "orientation": 3,
        "play_as": "video",
        "ready_to_edit": true,
        "ready_to_view": "ready",
        "resolution": "1080p",
        "source_duration": "469069",
        "token": "eyJhbGciOiJIUzI1NiJ9.eyJtZWRpdW1faWQiOiIxOTkxODc5OTQwMTc3Mzk3NDg5Iiwib3duZXIiOiJhMmJiMDUzYS01YTNlLTRjM2MtYWNmNy02ZWFkNjE2NGJkOGEiLCJpc19wdWJsaWMiOmZhbHNlLCJvIjozLCJ0cmFucyI6IkdQQVQiLCJyZWdpb24iOiJ1cy13ZXN0LTIiLCJ0aHVtYm5haWxfdXBkYXRlZF9kYXRlIjoiMjAyMS0xMC0yN1QwMDowMzo0N1oifQ.PY7FMXgKkGiQDnNKMSRUyl3p6qZiFi0tcNxEvkG49og",
        "type": "Video",
        "width": 1920
      }
    ]
  }
}
